{
    "txtYouDidIt": "Dobrá práce!",
    "txtNextUp": "Další cvik:",
    "txtLetsGoFirstUp": "Pojďme na to! První cvik: %s",
    "txtSecondsLeft5plus": "Zbývá %d vteřin",
    "txtBreak": "Pauza!",
    "txtTapForControls": "Ťukněte pro ovládání",
    "txtImageMissing": "Chybí fotka",
    "txtWorkoutTitle": "Název tréninku",
    "txtBeYourOwnCoach": "Buď vlastním trenérem!",
    "txtWorkoutToMakeYouFeelBest": "Navrhni si takový trénink, po kterém se budeš cítit nejlépe",
    "txtCategoryFullBody": "Celé tělo",
    "txtCategoryLegs": "Nohy",
    "txtYoureGlowing": "Dobrá práce!",
    "txtSubmitNewExercise": "Přispěj nový cvik",
    "txtContributeExerciseExplainer": "Feeel relies on volunteers like you to submit exercises and exercise photos. Any photos you submit will first be privately processed, then sent to you for approval, and only then released in the app. Thanks for contributing!",
    "txtExerciseName": "Název cviku",
    "txtHowToPerformExercise": "Jak provést cvik (nepovinné)",
    "txtEmailCouldNotBeSent": "E-mail se nepovedlo odeslat",
    "txtSubmitExerciseMessageTitle": "Návrh cviku: %s",
    "txtSubmitExerciseMessageContents": "Hello,\n\nI'm sending a proposal of an exercise. I hereby declare that all of it is my own work only. By sending this message, I irrevocably agree to have the submitted name and description released under a CC BY-SA license and an AGPLv3 with an app store exception license. I also give permission to process the attached image(s) into low-poly variants. After they are processed, I will evaluate whether I am willing to license them under the CC BY-SA license.\n\nExercise name: %1s\nExercise steps:\n%2s",
    "txtSettings": "Nastavení",
    "txtWorkoutTitleEmpty": "Prosím poskytněte název tréninku",
    "txtWorkoutExercisesEmpty": "Prosím přidejte alespoň 1 cvik",
    "txtDuration": "Délka",
    "txtExerciseDuration": "Délka cviku",
    "txtBreakDuration": "Délka přestávky",
    "txtCustom": "Vlastní",
    "txtNotANumber": "Není číslo",
    "txtNegativeNumber": "Není kladné",
    "txtNotificationInfoTitle": "Denní upozornění",
    "txtNotificationInfoDesc": "Denní připomenutí jít cvičit",
    "txtNotificationTitle": "Čas obléknout cvičební úbor!",
    "txtNotificationDesc": "Stačí jen pár minut, abyste se cítil/a svěží a fit",
    "txtRemindMe": "Připomínat, abych cvičil/a denně",
    "txtNeedCameraPermission": "Nelze fotografovat bez povolení fotoaparátu",
    "txtNotificationTime": "Čas upozornění",
    "txtAddExerciseFirst": "Nejprve musíte přidat cvičení",
    "btnStartWorkout": "Spustit trénink",
    "btnResumeWorkout": "Pokračovat v tréninku",
    "btnPreviousExercise": "Předchozí cvik",
    "btnNextExercise": "Další cvik",
    "btnAddExercise": "Přidat cviky",
    "btnEdit": "Upravit",
    "btnDelete": "Odstranit",
    "btnDone": "Hotovo",
    "btnMoreInfo": "Více info",
    "btnCreateCustomWorkout": "Vytvořit vlastní trénink",
    "btnAddCustomExerice": "Navrhnout vlastní cvik",
    "btnSubmitViaEmail": "Odeslat e-mailem",
    "btnAddPhotoFromGallery": "Přidat fotku z galerie",
    "btnTakeAPhoto": "Vyfotit cvik",
    "btnAddALinkToPhotos": "Přidat odkaz k fotce/fotkám",
    "btnDisableTTS": "Používat zvuky namísto mluveného slova",
    "btnAdjustTiming": "Upravit časování",
    "workoutScientific7Minute": "Vědecký sedmiminutový trénink",
    "workoutLeg": "Trénink nohou",
    "exerciseJumpingJacks": "Skákací panák",
    "stepsJumpingJacks": "1. Stůj vzpřímeně, nohy těsně vedle sebe a ruce podél těla\n2. Skoč na místě a roztáhni přitom nohy bez prohnutí kolen a rukama tleskni nad hlavou\n3. Skoč zpět a neustále opakuj",
    "exerciseWallSit": "Sed u stěny",
    "stepsWallSit": "1. Opři svá záda o stěnu s nohama pevně na zemi, od sebe vzdálenými asi o šířku ramen a přibližně ??????????? cm od stěny.\n2. Sesuňte záda podél zdi tak, abyste skončili s koleny pokrčenými v pravém úhlu. Kolena by měly být přímo nad kotníky.\nBolest v ??????????????? je běžná. Přestaňte, pokud cítíte bolest v koleni.",
    "exercisePushups": "Kliky",
    "stepsPushups": "1. Lehni si na břicho, s dlaněmi vedle hlavy.\n2. Opři se o ruce a zvedni svůj trup dokud nebudeš mít ruce napřímo. Ujisti se, že máš rovná záda.\n3. Ohni se v loktech, dokud se hrudí skoro nedotkneš země. Záda by měla být stále rovná.\n4. Opakuj od kroku 2",
    "exerciseAbCrunches": "Sedolehy",
    "stepsAbCrunches": "1. Lehni si na zem hlavou nahoru s pokrčenými koleny.\nZvedni záda tak, aby se tvá ramena co nejblíže přiblížily ke kolenům. Plosky nohou včetně prstů by měly zůstat na zemi. Ruce mohou být za hlavou nebo přeložené v kříž na hrudi.\n3. Opakuj",
    "exerciseStepups": "Výšlapy",
    "stepsStepups": "1. Stůj čelem k židli.\n2. Stoupni si na židli\n3. Sestup dolu ze židle\n4. Opakuj",
    "exerciseSquats": "Dřepy",
    "stepsSquats": "1. Stůj s nohama vzdálenými o šířku ramen.\n2. Posuň kyčel dozadu a pokrč kolena, dokud nebudeš mít stehna paralelně se zemí.\n3. Opakuj",
    "exerciseChairDips": "Dipy na židli",
    "stepsChairDips": "1. Sit down on the front edge of a chair, back straight, hands holding the front edge\n        2. Still holding the edge of the chair, arms extended, lift your butt and walk forward slightly so that it is a few inches from the chair.\n        3. Slowly lower your body, keeping the back straight, until arms are at a right angle\n        4. Raise your body again to the previous position, arms extended\n        5. Repeat steps 3 and 4",
    "exercisePlank": "Prkno",
    "stepsPlank": "1. Get down on all fours, with arms straight and knees bent\n        2. Walk your feet back until they are extended\n        3. Hold this position",
    "exerciseHighKnees": "Vysoká kolena",
    "stepsHighKnees": "1. Run in place, putting knees as high up as is comfortable and switching legs at a quick pace",
    "exerciseLunges": "Výpady",
    "stepsLunges": "1. Stand with back straight\n        2. Take a large step forward with your left leg\n        3. Bring your pelvis down until you almost touch the floor with your right knee\n        4. Bring your pelvis back up\n        5. Return to standing position by stepping back\n        6. Repeat, switching legs each time",
    "exerciseSplitSquatsLeft": "Dřep ve výpadu nalevo",
    "exerciseSplitSquatsRight": "Dřep ve výpadu napravo",
    "stepsSplitSquats": "1. Stand with back straight\n2. Take a large step forward with your left leg\n3. Bring your pelvis down until you almost touch the floor with your right knee\n4. Bring your pelvis back up\n5. Repeat from step 3.",
    "exercisePushupRotations": "Kliky s rotací",
    "stepsPushupRotations": "1. Do a standard push-up:\n        1.a Lie down on your stomach\n        1.b Place your hands near your ears\n        1.c Use your arms to lift your stomach up until the arms are straight, keeping the back straight\n        1.d Bend arms until chest almost touches the ground, making sure the back is straight\n        1.e Lift your stomach up again, returning to step 3\n        2. Rotate your body to the side so that the back is straight, the bottom hand supporting the body is fully extended, and only the bottom hand and foot touch the floor\n        3. Repeat, changing sides at step 2 each time",
    "exerciseSidePlankLeft": "Prkno na levém boku",
    "exerciseSidePlankRight": "Prkno na pravém boku",
    "stepsSidePlank": "1. Lie down on your left side, with your bottom elbow at a right angle, arm sticking out\n        2. Lift your pelvis off the floor by lifting your bottom shoulder up, keeping the forearm on the floor; your head, pelvis, and feet should be in a straight line\n        3. Hold this position",
    "exerciseSideSplitSquatsLeft": "Boční výpady nalevo",
    "exerciseSideSplitSquatsRight": "Boční výpady napravo",
    "stepsSideSplitSquats": "1. Stand tall and take a wide lateral stride, just greater than shoulder width. \n\n        2. Bend one knee until your thigh is parallel to the floor. The bent knee must be in line with the foot.\n\n        3. Press up and repeat, switching feet.",
    "exerciseBulgarianSplitSquatLeft": "Bulharské dřepy na levé noze",
    "exerciseBulgarianSplitSquatRight": "Bulharské dřepy na pravé noze",
    "stepsBulgarianSplitSquat": "1. Stand tall in front of a chair and take a large step. Put the upper part of one of your feet on the chair.\n2. Bend the front knee, balancing with arms until the back knee almost touches the ground\n3. Push back to the starting position and repeat.",
    "exercisePistolSquatLeft": "Dřep na levé noze",
    "exercisePistolSquatRight": "Dřep na pravé noze",
    "stepsPistolSquat": "1. Stand on one leg, with your other leg straight and slightly forward.\n2. Bend one knee slowly, descending into a squat and keeping your back and your other leg straight.\n3. Slowly raise yourself from the squat, straightening the bent knee and keeping the other leg straight.\n4. Repeat",
    "exerciseKneelingKickback": "Kickbacky v kleku",
    "stepsKneelingKickback": "1. Get down on all fours.\n2. Push one foot back until fully extended, concentrating on the gluteus muscles.\n3. Stay for one second, then return to the initial position.\n4. Repeat, alternating feet",
    "exerciseSingleLegCalfRaiseLeft": "Výpony na levé noze",
    "exerciseSingleLegCalfRaiseRight": "Výpony na pravé noze",
    "stepsSingleLegCalfRaise": "1. Stand on the floor or on the edge of a step to increase the range of movement. Raise one foot, placing the upper part on your calf.\n2. Lift your heels until you're standing on toes.\n3. Stay in this position for three seconds, then lower your foot without touching the ground with your heel."
}